country;strata_set;label;comment
CZ;CM border;Czechia-Moravia border;Region of the border between Czechia and Moravia.
CZ;MS;Moravian and Silesian region;Region of Silesia and central-East part of Moravia.
